<svg width="64" height="64" xmlns="http://www.w3.org/2000/svg">
 <title/>

 <g>
  <title>background</title>
  <rect fill="none" id="canvas_background" height="402" width="582" y="-1" x="-1"/>
 </g>
 <g>
  <title>Layer 1</title>
  <path id="svg_1" d="m60,59l-2,0l0,-41a1,1 0 0 0 -1,-1l-32,0a1,1 0 0 0 -0.61,0.21l-18,14a1,1 0 0 0 -0.39,0.79l0,27l-2,0a1,1 0 0 0 0,2l56,0a1,1 0 0 0 0,-2zm-47,0l0,-20l24,0l0,20l-24,0zm56,0l0,-10l6,0l0,10l-6,0zm8,0l0,-11a1,1 0 0 0 -1,-1l-32,0a1,1 0 0 0 -1,1l0,11l-4,0l0,-21a1,1 0 0 0 -1,-1l-26,0a1,1 0 0 0 -1,1l0,21l-3,0l0,-26.51l17.34,-13.49l30.66,0l0,40l21,0z"/>
  <path id="svg_2" d="m50,43l-4,0a1,1 0 0 0 0,2l4,0a1,1 0 0 0 0,-2z"/>
  <path id="svg_3" d="m27,33l-4,0a1,1 0 0 0 0,2l4,0a1,1 0 0 0 0,-2z"/>
  <path id="svg_4" d="m51,27l-8,0a1,1 0 0 0 -1,1l0,4a1,1 0 0 0 1,1l8,0a1,1 0 0 0 1,-1l0,-4a1,1 0 0 0 -1,-1zm-7,2l2,0l0,2l-2,0l0,-2zm6,2l-2,0l0,-2l2,0l0,2z"/>
  <path id="svg_5" d="m32,43l-14,0a1,1 0 0 0 0,2l14,0a1,1 0 0 0 0,-2z"/>
  <path id="svg_6" d="m32,48l-14,0a1,1 0 0 0 0,2l14,0a1,1 0 0 0 0,-2z"/>
  <path id="svg_7" d="m32,53l-14,0a1,1 0 0 0 0,2l14,0a1,1 0 0 0 0,-2z"/>
  <ellipse ry="8.675618" rx="8.675618" id="svg_8" cy="21.955486" cx="12.704087" stroke-width="1.5" stroke="#000" fill="#fff"/>
  <path stroke="#000" id="svg_12" d="m6.917666,21.793908l4.361649,4.368341l7.601971,-7.709041l-2.46261,2.56968" fill-opacity="null" stroke-opacity="null" stroke-width="1.5" fill="#fff"/>
 </g>
</svg>